%YAML 1.1
%TAG !u! tag:unity3d.com,2011:
--- !u!221 &22100000
AnimatorOverrideController:
  m_ObjectHideFlags: 0
  m_CorrespondingSourceObject: {fileID: 0}
  m_PrefabInternal: {fileID: 0}
  m_Name: Player
  m_Controller: {fileID: 9100000, guid: f974a29d83aa5a44ebff1a9a4f30829f, type: 2}
  m_Clips:
  - m_OriginalClip: {fileID: 7400000, guid: a4b3a3beda691e041aaaf9ddeda57fec, type: 2}
    m_OverrideClip: {fileID: 7400000, guid: a4b3a3beda691e041aaaf9ddeda57fec, type: 2}
